…
#> Requesting commits for maurolepore/dotfiles
#> Requesting commits for maurolepore/temp.gh
#> Requesting commits for maurolepore/fgeo.plot
#> Requesting commits for maurolepore/git-comun
#> Requesting commits for maurolepore/slack
#> Requesting commits for maurolepore/testthat
#> Requesting commits for maurolepore/commit
#> Requesting commits for maurolepore/quienes-somos
#> Requesting commits for maurolepore/un-repositorio
#> Requesting commits for maurolepore/revdepcheck
#> Requesting commits for maurolepore/gmailr
#> Requesting commits for maurolepore/dev_guide
#> Requesting commits for maurolepore/ixplorer
commits
#> # A tibble: 1,229 x 3
#>    full_name              author      datetime            
#>    <chr>                  <chr>       <chr>               
#>  1 maurolepore/ghhrs      maurolepore 2019-08-11T00:27:36Z
#>  2 maurolepore/ghhrs      maurolepore 2019-08-10T23:32:58Z
#>  3 maurolepore/ghhrs      maurolepore 2019-08-10T23:01:10Z
#>  4 maurolepore/ghhrs      maurolepore 2019-08-10T21:59:43Z
#>  5 maurolepore/ghhrs      maurolepore 2019-08-10T21:30:37Z
#>  6 maurolepore/r2dii.data maurolepore 2019-07-09T12:26:56Z
#>  7 maurolepore/r2dii.data maurolepore 2019-07-09T09:43:11Z
#>  8 maurolepore/r2dii.data maurolepore 2019-07-09T09:23:20Z
#>  9 maurolepore/r2dii.data maurolepore 2019-07-09T09:18:51Z
#> 10 maurolepore/r2dii.data maurolepore 2019-07-09T08:27:11Z
#> # ... with 1,219 more rows
```

Next, I parse the commit date, and set my timezone. I break the datetime into separate date and time pieces as that will make plotting easier later on.


```r
commits <- commits %>% mutate(
  datetime = lubridate::with_tz(readr::parse_datetime(datetime), "America/Chicago"),
  date = floor_date(datetime, "day"),
  time = update(datetime, yday = lubridate::yday("2019-08-01"))
)
#> Warning in (function (object, years = integer(), months = integer(), days =
#> integer(), : partial argument match of 'yday' to 'ydays'
commits
#> # A tibble: 1,229 x 5
#>    full_name author datetime            date               
#>    <chr>     <chr>  <dttm>              <dttm>             
#>  1 maurolep~ mauro~ 2019-08-10 19:27:36 2019-08-10 00:00:00
#>  2 maurolep~ mauro~ 2019-08-10 18:32:58 2019-08-10 00:00:00
#>  3 maurolep~ mauro~ 2019-08-10 18:01:10 2019-08-10 00:00:00
#>  4 maurolep~ mauro~ 2019-08-10 16:59:43 2019-08-10 00:00:00
#>  5 maurolep~ mauro~ 2019-08-10 16:30:37 2019-08-10 00:00:00
#>  6 maurolep~ mauro~ 2019-07-09 07:26:56 2019-07-09 00:00:00
#>  7 maurolep~ mauro~ 2019-07-09 04:43:11 2019-07-09 00:00:00
#>  8 maurolep~ mauro~ 2019-07-09 04:23:20 2019-07-09 00:00:00
#>  9 maurolep~ mauro~ 2019-07-09 04:18:51 2019-07-09 00:00:00
#> 10 maurolep~ mauro~ 2019-07-09 03:27:11 2019-07-09 00:00:00
#> # ... with 1,219 more rows, and 1 more variable: time <dttm>
```

Next, I do a couple of quick checks to make sure the data looks reasonable.


```r
commits %>% count(full_name, sort = TRUE) %>% print(n = 20)
#> # A tibble: 50 x 2
#>    full_name                             n
#>    <chr>                             <int>
#>  1 maurolepore/r2dii.dataraw           661
#>  2 maurolepore/drake                   263
#>  3 maurolepore/ghactions                38
#>  4 maurolepore/DCC                      33
#>  5 maurolepore/drake-manual             31
#>  6 maurolepore/github-demo              28
#>  7 maurolepore/r2dii.usethis            25
#>  8 maurolepore/covr                     23
#>  9 maurolepore/junr                     20
#> 10 maurolepore/r2dii.data               20
#> 11 maurolepore/meetings                 17
#> 12 maurolepore/r2dii.dataprep           14
#> 13 maurolepore/ghhrs                     5
#> 14 maurolepore/maurolepore.github.io     5
#> 15 maurolepore/todo                      5
#> 16 maurolepore/compareWith               4
#> 17 maurolepore/flagr                     3
#> 18 maurolepore/cv                        2
#> 19 maurolepore/a-repo                    1
#> 20 maurolepore/commit                    1
#> # ... with 30 more rows

commits %>% count(author, sort = TRUE)
#> # A tibble: 22 x 2
#>    author            n
#>    <chr>         <int>
#>  1 maurolepore     771
#>  2 wlandau-lilly   157
#>  3 wlandau         130
#>  4 maxheld83        38
#>  5 ronnyhdez        27
#>  6 <NA>             26
#>  7 jimhester        21
#>  8 2diiKlaus        17
#>  9 Clare2D          16
#> 10 ecamo19           5
#> # ... with 12 more rows
```

Now I pull out just the commits that I made, and only for repositories matching "r2dii".


```r
mauro <- commits %>% 
  filter(author == "maurolepore", grepl("r2dii", full_name))

mauro
#> # A tibble: 685 x 5
#>    full_name author datetime            date               
#>    <chr>     <chr>  <dttm>              <dttm>             
#>  1 maurolep~ mauro~ 2019-07-09 07:26:56 2019-07-09 00:00:00
#>  2 maurolep~ mauro~ 2019-07-09 04:43:11 2019-07-09 00:00:00
#>  3 maurolep~ mauro~ 2019-07-09 04:23:20 2019-07-09 00:00:00
#>  4 maurolep~ mauro~ 2019-07-09 04:18:51 2019-07-09 00:00:00
#>  5 maurolep~ mauro~ 2019-07-09 03:27:11 2019-07-09 00:00:00
#>  6 maurolep~ mauro~ 2019-07-09 03:27:23 2019-07-09 00:00:00
#>  7 maurolep~ mauro~ 2019-07-09 03:10:32 2019-07-09 00:00:00
#>  8 maurolep~ mauro~ 2019-07-09 03:26:37 2019-07-09 00:00:00
#>  9 maurolep~ mauro~ 2019-07-09 03:50:16 2019-07-09 00:00:00
#> 10 maurolep~ mauro~ 2019-07-09 03:23:20 2019-07-09 00:00:00
#> # ... with 675 more rows, and 1 more variable: time <dttm>
```
…
